Normalidad Multivariante
…
datos = datos %>% 
  mutate(Hepatomegaly = if_else(Hepatomegaly == "Y", "Si", "No") %>% as.factor)

datos = datos %>% 
  mutate(Spiders = if_else(Spiders == "Y", "Si", "No") %>% as.factor)

datos = datos %>% 
  mutate(Edema = recode(Edema, "Y" = "Si", "N" = "No", "S" = "Sin") %>% as.factor)

datos = datos %>% 
  mutate(Stage = Stage %>% as.factor)

Observemos que hay muestras que tienen valores desconocidos (NA). Veamos cuales son:

# A tibble: 142 × 20
      ID N_Days Status Drug         Age Sex   Ascites Hepatomegaly Spiders Edema
   <int>  <int> <fct>  <fct>      <int> <fct> <fct>   <fct>        <fct>   <fct>
 1     6   2503 Muerto Placebo    24201 Fema… No      Si           No      No   
 2    14   1217 Muerto Placebo    20535 Male  Si      Si           No      Si   
 3    40   4467 Cens   D-penicil… 17046 Fema… No      No           No      No   
 4    41   1350 Muerto D-penicil… 12285 Fema… No      Si           No      No   
 5    42   4453 Cens   Placebo    12307 Fema… No      Si           Si      No   
 6    45   4025 Cens   Placebo    15265 Fema… No      No           No      No   
 7    49    708 Muerto Placebo    22336 Fema… No      Si           No      No   
 8    53   1000 Muerto D-penicil… 24621 Fema… No      Si           No      No   
 9    58   4459 Cens   D-penicil… 16279 Male  No      No           No      No   
10    70   3458 Cens   D-penicil… 20600 Fema… No      No           No      No   
# ℹ 132 more rows
# ℹ 10 more variables: Bilirubin <dbl>, Cholesterol <int>, Albumin <dbl>,
#   Copper <int>, Alk_Phos <dbl>, SGOT <dbl>, Tryglicerides <int>,
#   Platelets <int>, Prothrombin <dbl>, Stage <fct>
…
